{
  "server": true,
  "node_name": "server-one",
  "bind_addr": "10.10.10.100",
  "datacenter": "byon",
  "data_dir": "/opt/consul/data",
  "client_addr": "10.10.10.100",
  "ui_dir": "/opt/consul/ui",
  "log_level": "INFO"
}